{
	"status": "ok",
	"msg": "success",
  "draw_date": "May 2020",
	"list": [
    {
      "date":"Tuesday, 5 May",
      "time":"5",
      "draw_date":"2020-05-05",
      "user_currency": "EUR",
      "name":"Mega Millions",
      "ball_number":[7,13,17,21,45],
      "extra_number":[],
      "bonus_number":[14],
      "jackpot": "78.8 Million"
    },
    {
      "date":"Tuesday, 5 May",
      "time":"5",
      "draw_date":"2020-05-05",
      "user_currency": "EUR",
      "name":"Cash4Life",
      "ball_number":[11,32,34,52,60],
      "extra_number":[],
      "bonus_number":[2],
      "jackpot": "78.8 Million"
    },
    {
      "date":"Tuesday, 5 May",
      "time":"5",
      "draw_date":"2020-05-05",
      "user_currency": "EUR",
      "name":"Mega-Sena",
      "ball_number":[1,5,7,14,23,26],
      "extra_number":[],
      "bonus_number":[],
      "jackpot": "78.8 Million"
    },
    {
      "date":"Tuesday, 5 May",
      "time":"5",
      "draw_date":"2020-05-05",
      "user_currency": "EUR",
      "name":"Poland Lotto",
      "ball_number":[21,28,29,39,45,49],
      "extra_number":[],
      "bonus_number":[],
      "jackpot": "78.8 Million"
    },
    {
      "date":"Tuesday, 5 May",
      "time":"5",
      "draw_date":"2020-05-05",
      "user_currency": "EUR",
      "name":"Mini Lotto",
      "ball_number":[7,11,20,24,39],
      "extra_number":[],
      "bonus_number":[],
      "jackpot": "78.8 Million"
    },
    {
      "date":"Tuesday, 5 May",
      "time":"5",
      "draw_date":"2020-05-05",
      "user_currency": "EUR",
      "name":"Euromillions",
      "ball_number":[2,10,22,27,41],
      "extra_number":[],
      "bonus_number":[2,3],
      "jackpot": "78.8 Million"
    },
    {
      "date":"Tuesday, 5 May",
      "time":"5",
      "draw_date":"2020-05-05",
      "user_currency": "EUR",
      "name":"South Africa Daily Lotto",
      "ball_number":[3,6,21,26,29],
      "extra_number":[],
      "bonus_number":[],
      "jackpot": "78.8 Million"
    },
    {
      "date":"Tuesday, 5 May",
      "time":"5",
      "draw_date":"2020-05-05",
      "user_currency": "EUR",
      "name":"South Africa Powerball",
      "ball_number":[6,22,4,46,49],
      "extra_number":[],
      "bonus_number":[3],
      "jackpot": "78.8 Million"
    },
    {
      "date":"Tuesday, 4 May",
      "time":"4",
      "draw_date":"2020-05-04",
      "user_currency": "EUR",
      "name":"French Lotto",
      "ball_number":[8,9,15,33,39],
      "extra_number":[],
      "bonus_number":[10],
      "jackpot": "78.8 Million"
    },
    {
      "date":"Tuesday, 3 May",
      "time":"3",
      "draw_date":"2020-05-03",
      "user_currency": "EUR",
      "name":"Austria Lotto",
      "ball_number":[10,14,21,32,34,45],
      "extra_number":[11],
      "bonus_number":[],
      "jackpot": "78.8 Million"
    },
    {
      "date":"Tuesday, 2 May",
      "time":"2",
      "draw_date":"2020-05-02",
      "user_currency": "EUR",
      "name":"New York Lotto",
      "ball_number":[1,22,24,27,37,51],
      "extra_number":[30],
      "bonus_number":[],
      "jackpot": "78.8 Million"
    },
    {
      "date":"Tuesday, 2 May",
      "time":"2",
      "draw_date":"2020-05-02",
      "user_currency": "EUR",
      "name":"Powerball",
      "ball_number":[13,16,33,58,68],
      "extra_number":[],
      "bonus_number":[24],
      "jackpot": "78.8 Million"
    },
    {
      "date":"Tuesday, 2 May",
      "time":"2",
      "draw_date":"2020-05-02",
      "user_currency": "EUR",
      "name":"California SuperLotto",
      "ball_number":[4,7,21,37,43],
      "extra_number":[],
      "bonus_number":[7],
      "jackpot": "78.8 Million"
    },
    {
      "date":"Tuesday, 2 May",
      "time":"2",
      "draw_date":"2020-05-02",
      "user_currency": "EUR",
      "name":"Canada Lotto",
      "ball_number":[15,18,26,34,43,45],
      "extra_number":[42],
      "bonus_number":[],
      "jackpot": "78.8 Million"
    },
    {
      "date":"Tuesday, 2 May",
      "time":"2",
      "draw_date":"2020-05-02",
      "user_currency": "EUR",
      "name":"South Africa Lotto",
      "ball_number":[1,11,14,19,31,43],
      "extra_number":[7],
      "bonus_number":[],
      "jackpot": "78.8 Million"
    },
    {
      "date":"Tuesday, 2 May",
      "time":"2",
      "draw_date":"2020-05-02",
      "user_currency": "EUR",
      "name":"Finland Lotto",
      "ball_number":[2,8,10,14,18,29,35],
      "extra_number":[12],
      "bonus_number":[],
      "jackpot": "78.8 Million"
    },
    {
      "date":"Tuesday, 2 May",
      "time":"2",
      "draw_date":"2020-05-02",
      "user_currency": "EUR",
      "name":"Irish Lotto",
      "ball_number":[3,10,17,21,37,46],
      "extra_number":[2],
      "bonus_number":[],
      "jackpot": "78.8 Million"
    },
    {
      "date":"Tuesday, 2 May",
      "time":"2",
      "draw_date":"2020-05-02",
      "user_currency": "EUR",
      "name":"Germany Lotto",
      "ball_number":[4,10,11,16,27,49],
      "extra_number":[],
      "bonus_number":[2],
      "jackpot": "78.8 Million"
    },
    {
      "date":"Tuesday, 2 May",
      "time":"2",
      "draw_date":"2020-05-02",
      "user_currency": "EUR",
      "name":"Norway Lotto",
      "ball_number":[9,15,16,18,28,31,33],
      "extra_number":[32],
      "bonus_number":[],
      "jackpot": "78.8 Million"
    },
    {
      "date":"Tuesday, 2 May",
      "time":"2",
      "draw_date":"2020-05-02",
      "user_currency": "EUR",
      "name":"Swiss lotto",
      "ball_number":[1,10,19,27,31,41],
      "extra_number":[],
      "bonus_number":[3],
      "jackpot": "78.8 Million"
    },
    {
      "date":"Tuesday, 2 May",
      "time":"2",
      "draw_date":"2020-05-02",
      "user_currency": "EUR",
      "name":"Saturday Lotto",
      "ball_number":[10,14,16,18,31,43],
      "extra_number":[4,35],
      "bonus_number":[],
      "jackpot": "78.8 Million"
    },
    {
      "date":"Tuesday, 1 May",
      "time":"1",
      "draw_date":"2020-05-01",
      "user_currency": "EUR",
      "name":"Eurojackpot",
      "ball_number":[6,11,12,21,41],
      "extra_number":[],
      "bonus_number":[1,2],
      "jackpot": "78.8 Million"
    }
	]
}