{
  "status": "ok",
  "msg": "success",
  "name":"Mega Millions",
  "draw_date": "28 April 2020",
  "number": {
    "ball_number":[13,19,53,54,63],
    "extra_number":[],
    "bonus_number":[17]
  },
  "draw_info": [
    {
      "match":"5+1",
      "odds":"1:302 575 350",
      "prize":"No winner"
    },
    {
      "match":"5",
      "odds":"1:12 607 306",
      "prize":"€922 253.99"
    },
    {
      "match":"4+1",
      "odds":"1:931 001",
      "prize":"€9 222.54"
    },
    {
      "match":"4",
      "odds":"1:38 792",
      "prize":"€461.13"
    },
    {
      "match":"3+1",
      "odds":"1:14 547",
      "prize":"€184.45"
    },
    {
      "match":"3",
      "odds":"1:606",
      "prize":"€9.22"
    },
    {
      "match":"2+1",
      "odds":"1:693",
      "prize":"€9.22"
    },
    {
      "match":"1+1",
      "odds":"1:89",
      "prize":"€3.69"
    },
    {
      "match":"0+1",
      "odds":"1:37",
      "prize":"€1.84"
    }
  ]
}